[gd_scene load_steps=8 format=2]

[ext_resource path="res://assets/background.png" type="Texture" id=1]
[ext_resource path="res://assets/background_alpha.png" type="Texture" id=2]
[ext_resource path="res://BackgroundScroll.gd" type="Script" id=3]

[sub_resource type="Shader" id=1]
code = "shader_type canvas_item;
uniform float scroll_speed;

void fragment(){
	vec2 shifteduv = UV;
	shifteduv .y -= TIME * scroll_speed;
	vec4 color = texture(TEXTURE, shifteduv);
	COLOR = color;	
}"

[sub_resource type="ShaderMaterial" id=2]
shader = SubResource( 1 )
shader_param/scroll_speed = null

[sub_resource type="Shader" id=3]
code = "shader_type canvas_item;
uniform float scroll_speed;

void fragment(){
	vec2 shifteduv = UV;
	shifteduv .y -= TIME * scroll_speed;
	vec4 color = texture(TEXTURE, shifteduv);
	COLOR = color;	
}"

[sub_resource type="ShaderMaterial" id=4]
shader = SubResource( 3 )
shader_param/scroll_speed = null

[node name="UI" type="Control"]
anchor_right = 1.0
anchor_bottom = 1.0
__meta__ = {
"_edit_use_anchors_": false
}

[node name="Background" type="TextureRect" parent="."]
material = SubResource( 2 )
margin_right = 600.0
margin_bottom = 1024.0
rect_scale = Vector2( 2, 2 )
texture = ExtResource( 1 )
stretch_mode = 2
script = ExtResource( 3 )
__meta__ = {
"_edit_lock_": true,
"_edit_use_anchors_": false
}
scroll_speed = 0.005

[node name="BackgroundParallax" type="TextureRect" parent="."]
material = SubResource( 4 )
margin_right = 600.0
margin_bottom = 1024.0
rect_scale = Vector2( 2, 2 )
texture = ExtResource( 2 )
stretch_mode = 2
script = ExtResource( 3 )
__meta__ = {
"_edit_lock_": true,
"_edit_use_anchors_": false
}
scroll_speed = 0.001
